<?xml version="1.0" encoding="utf-8"?>
<!-- Generator: Adobe Illustrator 16.0.4, SVG Export Plug-In . SVG Version: 6.00 Build 0)  -->
<!DOCTYPE svg PUBLIC "-//W3C//DTD SVG 1.1//EN" "http://www.w3.org/Graphics/SVG/1.1/DTD/svg11.dtd">
<svg version="1.1" id="EHE" xmlns="http://www.w3.org/2000/svg" xmlns:xlink="http://www.w3.org/1999/xlink" x="0px" y="0px"
	 width="493.076px" height="292.622px" viewBox="232.667 107.975 493.076 292.622"
	 enable-background="new 232.667 107.975 493.076 292.622" xml:space="preserve">
<g>
	<g>
		<path fill="#231F20" d="M345.997,237.399l-0.545-3.773h-6.91v24.418l3.682,0.545v2.319h-13.094v-2.319l3.684-0.545v-24.418h-6.91
			l-0.545,3.773h-2.457v-6.955h25.555v6.955H345.997L345.997,237.399z"/>
		<path fill="#231F20" d="M364.958,260.908v-2.183l3.41-0.548v-8.319h-9.094v8.319l3.408,0.548v2.183h-12.41v-2.183l3.547-0.548
			v-18.413l-3.547-0.547v-2.183h12.41v2.183l-3.408,0.547v7.184h9.094v-7.184l-3.41-0.547v-2.183h12.412v2.183l-3.545,0.547v18.413
			l3.545,0.548v2.183H364.958z"/>
		<path fill="#231F20" d="M400.604,260.908h-20.598v-2.183l3.547-0.548v-18.413l-3.547-0.547v-2.183h20.598v6.319h-2.316
			l-0.547-3.408h-8.729v7.093h5.455l0.547-3.047h2.043v8.821h-2.043l-0.547-3.047h-5.455v8.229h8.729l0.547-3.41h2.316V260.908z"/>
		<path fill="#231F20" d="M429.565,261.453c-9.457,0-13.596-5.638-13.596-15.868c0-10.186,4.184-15.688,13.643-15.688
			c9.457,0,13.596,5.639,13.596,15.869C443.208,255.952,439.024,261.453,429.565,261.453z M429.612,233.218
			c-5.047,0-7.641,4.047-7.641,12.412c0,8.412,2.5,12.504,7.547,12.504c5.051,0,7.641-4.047,7.641-12.412
			C437.159,237.31,434.659,233.218,429.612,233.218z"/>
		<path fill="#231F20" d="M460.348,260.908v-2.183l3.408-0.548v-8.319h-9.092v8.319l3.41,0.548v2.183h-12.414v-2.183l3.547-0.548
			v-18.413l-3.547-0.547v-2.183h12.414v2.183l-3.41,0.547v7.184h9.092v-7.184l-3.408-0.547v-2.183h12.412v2.183l-3.547,0.547v18.413
			l3.547,0.548v2.183H460.348z"/>
		<path fill="#231F20" d="M475.715,260.908v-2.183l3.547-0.548v-18.413l-3.547-0.547v-2.183h12.549v2.183l-3.547,0.547v18.413
			l3.547,0.548v2.183H475.715z"/>
		<path fill="#231F20" d="M501.723,261.362c-8.049,0-11.549-4.502-11.549-12.413s3.545-12.322,11.594-12.322
			c8.051,0,11.553,4.503,11.553,12.413C513.317,256.952,509.772,261.362,501.723,261.362z M501.77,239.765
			c-3.818,0-5.863,2.773-5.863,9.186c0,6.456,1.955,9.275,5.77,9.275c3.82,0,5.912-2.773,5.912-9.186
			C507.588,242.584,505.586,239.765,501.77,239.765z"/>
		<path fill="#231F20" d="M538.188,261.453c-5.271,0-9.504-1.818-9.504-1.818v-6.502h2.596l0.59,4.185c0,0,1.955,0.681,5.412,0.681
			c3.545,0,6.729-1.183,6.729-5.047c0-3.5-2.455-4.001-5.457-5.001c-4.771-1.592-9.818-2.956-9.818-9.503
			c0-5.32,3.318-8.55,10.273-8.55c3.186,0,6.502,0.729,9.094,1.729v6.093h-2.592l-0.59-3.91c0,0-2.729-0.591-5.367-0.591
			c-2.637,0-5.363,0.909-5.363,4.41c0,7.593,15.277,2.593,15.277,14.731C549.463,258.089,545.735,261.453,538.188,261.453z"/>
		<path fill="#231F20" d="M571.014,243.63l-0.545-3.683h-5.271v18.229l3.547,0.547v2.184h-12.549v-2.184l3.547-0.547v-18.229h-5.275
			l-0.545,3.683h-2.32v-6.594h21.734v6.594H571.014z"/>
		<path fill="#231F20" d="M587.926,260.908v-2.183l3.408-0.548l-1.68-4.317h-9.094l-1.686,4.317l3.41,0.548v2.183h-10.412v-2.183
			l3.41-0.548l8.184-21.143h5.229l8.186,21.143l3.41,0.548v2.183H587.926z M585.106,241.629l-3.455,9.458h6.912L585.106,241.629z"/>
		<path fill="#231F20" d="M618.25,243.63l-0.547-3.683h-5.273v18.229l3.547,0.547v2.184h-12.551v-2.184l3.547-0.547v-18.229H601.7
			l-0.545,3.683h-2.318v-6.594h21.734v6.594H618.25z"/>
		<path fill="#231F20" d="M643.256,260.908h-20.598v-2.183l3.547-0.548v-18.413l-3.547-0.547v-2.183h20.598v6.319h-2.314
			l-0.551-3.408h-8.729v7.093h5.455l0.547-3.047h2.045v8.821h-2.045l-0.547-3.047h-5.455v8.229h8.729l0.551-3.41h2.314V260.908z"/>
	</g>
	<g>
		<path fill="#231F20" d="M387.803,281.337v15.553c0,5.229-0.316,7.502-2.771,9.957c-1.773,1.771-4.686,2.637-9.002,2.637
			c-4.275,0-7.457-1.184-9.459-3.184c-2.594-2.592-2.318-6.457-2.318-9.82v-15.143l-3.684-0.546v-2.317h13.094v2.317l-3.684,0.546
			v17.824c0,5.002,2.773,7.002,7.047,7.002c2.275,0,4.141-0.455,5.365-1.771c1.094-1.139,1.684-2.91,1.684-5.229v-17.824
			l-3.684-0.546v-2.318h11.096v2.318L387.803,281.337z"/>
		<path fill="#231F20" d="M416.493,287.794v21.145h-4.273l-12.143-17.051v14.32l3.549,0.547v2.184H392.94v-2.184l3.547-0.547
			v-18.414l-3.547-0.547v-2.184h8.318l11.643,16.276v-13.549l-3.545-0.547v-2.183h10.684v2.183L416.493,287.794z"/>
		<path fill="#231F20" d="M422.858,308.938v-2.184l3.547-0.547v-18.414l-3.547-0.547v-2.184h12.549v2.184l-3.547,0.547v18.414
			l3.547,0.547v2.184H422.858z"/>
		<path fill="#231F20" d="M462.051,287.794l-7.957,21.145h-5.273l-7.957-21.145l-3.408-0.547v-2.184h12.365v2.184l-3.41,0.547
			l6.049,16.369l6-16.369l-3.408-0.547v-2.184h10.412v2.184L462.051,287.794z"/>
		<path fill="#231F20" d="M487.922,308.938h-20.598v-2.184l3.545-0.547v-18.414l-3.545-0.547v-2.184h20.598v6.319h-2.32
			l-0.545-3.409h-8.729v7.094h5.455l0.547-3.047h2.047v8.819h-2.047l-0.547-3.047h-5.455v8.229h8.729l0.545-3.41h2.32V308.938z"/>
		<path fill="#231F20" d="M508.836,308.938l-2.229-5.457c-1.502-3.639-2.41-5.317-5.596-5.317h-0.406v8.047l3.406,0.547v2.183H491.6
			v-2.183l3.549-0.547v-18.414l-3.549-0.547v-2.183h12.053c2.455,0,5.316,0.138,7.184,1.865c1.229,1.137,1.91,2.682,1.91,4.453
			c0,2.773-1.82,5.273-4.32,6.049c2,1.5,3.73,6.409,4.73,8.773l3.412,0.547v2.184H508.836L508.836,308.938z M506.29,288.702
			c-0.912-0.954-2.865-0.863-4.092-0.863h-1.592v7.641h0.951c1.549,0,3.688,0.183,4.82-1.092c0.73-0.818,0.908-1.771,0.908-2.818
			C507.29,290.521,507.063,289.521,506.29,288.702z"/>
		<path fill="#231F20" d="M527.34,309.394c-4.455,0-8.184-1.5-8.184-1.5v-6.187h2.455l0.59,3.91c0,0,1.729,0.501,4.412,0.501
			c2.91,0,5.137-0.955,5.137-3.549c0-1.816-1-2.454-2.5-2.953c-4.41-1.504-10.049-2.139-10.049-8.096
			c0-4.273,2.955-6.867,8.82-6.867c2.684,0,5.455,0.549,7.863,1.41v5.91h-2.455l-0.592-3.729c0,0-2-0.454-4.229-0.454
			s-4.186,0.771-4.186,3.092c0,5.32,12.598,1.773,12.598,11.229C537.024,306.755,533.661,309.394,527.34,309.394z"/>
		<path fill="#231F20" d="M540.208,308.938v-2.184l3.547-0.547v-18.414l-3.547-0.547v-2.184h12.551v2.184l-3.549,0.547v18.414
			l3.549,0.547v2.184H540.208z"/>
		<path fill="#231F20" d="M574.764,291.658l-0.547-3.685h-5.271v18.231l3.547,0.547v2.183H559.94v-2.183l3.549-0.547v-18.231h-5.277
			l-0.543,3.685h-2.318v-6.595h21.734v6.595H574.764z"/>
		<path fill="#231F20" d="M602.18,287.794l-6.957,10.775v7.639l3.547,0.547v2.184h-12.549v-2.184l3.547-0.547v-7.639l-7.049-10.775
			l-3.41-0.547v-2.184h12.643v2.184l-3.41,0.547l4.91,7.729l4.865-7.729l-3.273-0.547v-2.184h10.549v2.184L602.18,287.794z"/>
	</g>
	<g>
		<path fill="#C3002F" d="M466.061,135.226l6.479-6.479h20.994l6.479,6.479v43.171l-6.479,6.479H472.54l-6.479-6.479V135.226
			L466.061,135.226z M516.368,128.18l-16.016-15.971H465.68l-16.096,16.106v57.012l16.096,16.105h34.672l16.016-15.929V128.18
			L516.368,128.18z"/>
		<path fill="#231F20" d="M447.487,186.255v-59.21l17.43-17.409l36.434-0.004l17.5,17.413l-0.309,59.334l-17.314,17.315
			l-36.311-0.002L447.487,186.255L447.487,186.255z M464.178,107.976l-18.338,18.332v60.699l18.213,18.441h37.932l18.211-18.333
			l0.123-60.808l-18.207-18.332L464.178,107.976L464.178,107.976z"/>
		<path fill="#231F20" d="M474.438,132.897h17.223l4.104,4.105v39.701l-3.953,3.955H474.28l-3.896-3.896v-39.815L474.438,132.897
			L474.438,132.897z M497.422,136.384l-5.145-5.145h-18.562l-5.07,5.072v41.043l4.963,4.961h18.895l4.92-4.92V136.384
			L497.422,136.384z"/>
	</g>
	<polygon fill="#231F20" points="358.75,325.541 358.75,327.254 607.405,327.254 607.405,325.541 	"/>
	<g>
		<path d="M395.745,358.722c0-6.15,4.529-10.351,10.289-10.351c3.541,0,6,1.71,7.59,3.96l-2.1,1.17
			c-1.141-1.682-3.209-2.91-5.49-2.91c-4.379,0-7.709,3.359-7.709,8.131c0,4.738,3.33,8.129,7.709,8.129
			c2.281,0,4.35-1.199,5.49-2.908l2.131,1.17c-1.682,2.279-4.08,3.959-7.621,3.959C400.274,369.069,395.745,364.87,395.745,358.722z
			"/>
		<path d="M416.024,358.722c0-5.91,3.988-10.351,9.93-10.351c5.91,0,9.93,4.438,9.93,10.351c0,5.908-4.02,10.35-9.93,10.35
			C420.014,369.069,416.024,364.63,416.024,358.722z M433.303,358.722c0-4.681-2.881-8.131-7.35-8.131
			c-4.5,0-7.352,3.45-7.352,8.131c0,4.648,2.852,8.129,7.352,8.129C430.422,366.851,433.303,363.37,433.303,358.722z"/>
		<path d="M439.784,368.71v-20.009h2.49v17.789h9.301v2.22H439.784z"/>
		<path d="M455.083,368.71v-20.009h2.49v17.789h9.301v2.22H455.083z"/>
		<path d="M470.383,368.71v-20.009h13.109v2.22h-10.619v6.449h10.41v2.221h-10.41v6.899h10.619v2.22H470.383z"/>
		<path d="M486.643,358.722c0-6.209,4.592-10.351,10.289-10.351c3.541,0,6,1.562,7.771,3.75l-1.98,1.229
			c-1.26-1.619-3.391-2.761-5.791-2.761c-4.379,0-7.709,3.359-7.709,8.132c0,4.737,3.33,8.157,7.709,8.157
			c2.4,0,4.383-1.17,5.371-2.16v-4.077h-6.869v-2.223h9.359v7.229c-1.861,2.069-4.59,3.449-7.861,3.449
			C491.233,369.101,486.643,364.931,486.643,358.722z"/>
		<path d="M508.842,368.71v-20.009h13.109v2.22h-10.619v6.449h10.41v2.221h-10.41v6.899h10.619v2.22H508.842z"/>
		<path d="M532.842,358.722c0-5.91,3.99-10.351,9.93-10.351c5.91,0,9.932,4.438,9.932,10.351c0,5.908-4.021,10.35-9.932,10.35
			C536.833,369.069,532.842,364.63,532.842,358.722z M550.122,358.722c0-4.681-2.879-8.131-7.35-8.131
			c-4.5,0-7.352,3.45-7.352,8.131c0,4.648,2.852,8.129,7.352,8.129C547.243,366.851,550.122,363.37,550.122,358.722z"/>
		<path d="M556.602,368.71v-20.009h13.109v2.22h-10.619v6.449h10.41v2.221h-10.41v9.119H556.602z"/>
	</g>
	<g>
		<path d="M232.667,400.21v-20.009h13.109v2.22h-10.62v6.449h10.41v2.221h-10.41v6.899h10.62v2.22H232.667z"/>
		<path d="M249.736,400.21v-20.009h6.841c6.209,0,10.26,4.35,10.26,10.021c0,5.698-4.051,9.988-10.26,9.988H249.736z
			 M264.256,390.222c0-4.32-2.73-7.801-7.68-7.801h-4.351v15.569h4.351C261.436,397.99,264.256,394.51,264.256,390.222z"/>
		<path d="M270.736,392.438v-12.237h2.49v12.179c0,3.66,1.979,5.97,5.67,5.97s5.67-2.31,5.67-5.97v-12.179h2.49v12.209
			c0,4.979-2.729,8.16-8.16,8.16S270.736,397.36,270.736,392.438z"/>
		<path d="M290.926,390.222c0-6.15,4.529-10.351,10.289-10.351c3.541,0,6,1.71,7.59,3.96l-2.1,1.17
			c-1.14-1.682-3.209-2.91-5.49-2.91c-4.379,0-7.709,3.359-7.709,8.131c0,4.738,3.33,8.128,7.709,8.128
			c2.281,0,4.351-1.197,5.49-2.907l2.131,1.17c-1.68,2.277-4.08,3.96-7.621,3.96C295.456,400.57,290.926,396.37,290.926,390.222z"/>
		<path d="M326.206,400.21l-1.771-4.438h-9.959l-1.77,4.438h-2.85l8.039-20.009h3.09l8.068,20.009H326.206z M319.456,382.778
			l-4.26,10.771h8.488L319.456,382.778z"/>
		<path d="M334.606,400.21v-17.789h-6.33v-2.22h15.18v2.22h-6.359v17.789H334.606z"/>
		<path d="M346.756,400.21v-20.009h2.49v20.009H346.756z"/>
		<path d="M353.116,390.222c0-5.91,3.99-10.351,9.93-10.351c5.91,0,9.93,4.438,9.93,10.351c0,5.908-4.02,10.351-9.93,10.351
			C357.106,400.57,353.116,396.13,353.116,390.222z M370.397,390.222c0-4.681-2.883-8.131-7.352-8.131c-4.5,0-7.35,3.45-7.35,8.131
			c0,4.648,2.85,8.128,7.35,8.128C367.516,398.35,370.397,394.87,370.397,390.222z"/>
		<path d="M391.036,400.21l-11.67-15.959v15.959h-2.49v-20.009h2.551l11.521,15.629v-15.629h2.488v20.009H391.036L391.036,400.21z"
			/>
		<path d="M420.135,400.21l-1.77-4.438h-9.961l-1.771,4.438h-2.85l8.041-20.009h3.09l8.07,20.009H420.135z M413.385,382.778
			l-4.26,10.771h8.49L413.385,382.778z"/>
		<path d="M439.754,400.21l-11.67-15.959v15.959h-2.49v-20.009h2.551l11.521,15.629v-15.629h2.49v20.009H439.754L439.754,400.21z"/>
		<path d="M446.834,400.21v-20.009h6.84c6.209,0,10.26,4.35,10.26,10.021c0,5.698-4.051,9.988-10.26,9.988H446.834z
			 M461.356,390.222c0-4.32-2.73-7.801-7.682-7.801h-4.35v15.569h4.35C458.536,397.99,461.356,394.51,461.356,390.222z"/>
		<path d="M489.764,400.21v-9.182h-11.697v9.182h-2.49v-20.009h2.49v8.608h11.697v-8.608h2.49v20.009H489.764z"/>
		<path d="M496.936,392.438v-12.237h2.488v12.179c0,3.66,1.98,5.97,5.67,5.97c3.691,0,5.67-2.31,5.67-5.97v-12.179h2.49v12.209
			c0,4.979-2.729,8.16-8.16,8.16C499.665,400.57,496.936,397.36,496.936,392.438z"/>
		<path d="M535.034,400.21v-16.47l-6.811,16.47h-1.021l-6.779-16.47v16.47h-2.49v-20.009h3.57l6.211,15.059l6.238-15.059h3.568
			v20.009H535.034z"/>
		<path d="M556.485,400.21l-1.771-4.438h-9.961l-1.77,4.438h-2.852l8.039-20.009h3.09l8.07,20.009H556.485z M549.735,382.778
			l-4.262,10.771h8.49L549.735,382.778z"/>
		<path d="M576.104,400.21l-11.67-15.959v15.959h-2.488v-20.009h2.551l11.52,15.629v-15.629h2.49v20.009H576.104L576.104,400.21z"/>
		<path d="M590.924,400.21v-20.009h13.109v2.22h-10.619v6.449h10.408v2.221h-10.408v6.899h10.619v2.22H590.924z"/>
		<path d="M607.184,390.222c0-6.15,4.529-10.351,10.289-10.351c3.539,0,6,1.71,7.592,3.96l-2.102,1.17
			c-1.141-1.682-3.211-2.91-5.49-2.91c-4.381,0-7.709,3.359-7.709,8.131c0,4.738,3.328,8.128,7.709,8.128
			c2.279,0,4.352-1.197,5.49-2.907l2.129,1.17c-1.68,2.277-4.08,3.96-7.619,3.96C611.713,400.57,607.184,396.37,607.184,390.222z"/>
		<path d="M627.463,390.222c0-5.91,3.99-10.351,9.93-10.351c5.91,0,9.932,4.438,9.932,10.351c0,5.908-4.021,10.351-9.932,10.351
			C631.454,400.57,627.463,396.13,627.463,390.222z M644.743,390.222c0-4.681-2.879-8.131-7.352-8.131c-4.5,0-7.35,3.45-7.35,8.131
			c0,4.648,2.85,8.128,7.35,8.128C641.864,398.35,644.743,394.87,644.743,390.222z"/>
		<path d="M651.223,400.21v-20.009h2.49v17.789h9.299v2.22H651.223z"/>
		<path d="M664.694,390.222c0-5.91,3.986-10.351,9.93-10.351c5.908,0,9.93,4.438,9.93,10.351c0,5.908-4.021,10.351-9.93,10.351
			C668.682,400.57,664.694,396.13,664.694,390.222z M681.973,390.222c0-4.681-2.881-8.131-7.35-8.131c-4.5,0-7.35,3.45-7.35,8.131
			c0,4.648,2.85,8.128,7.35,8.128C679.092,398.35,681.973,394.87,681.973,390.222z"/>
		<path d="M687.643,390.222c0-6.209,4.592-10.351,10.289-10.351c3.541,0,6,1.562,7.771,3.75l-1.98,1.229
			c-1.26-1.619-3.391-2.761-5.789-2.761c-4.381,0-7.711,3.359-7.711,8.132c0,4.737,3.33,8.157,7.711,8.157
			c2.398,0,4.381-1.17,5.369-2.16v-4.077h-6.869v-2.223h9.359v7.23c-1.859,2.067-4.59,3.447-7.859,3.447
			C692.233,400.6,687.643,396.43,687.643,390.222z"/>
		<path d="M715.393,400.21v-8.46l-7.889-11.549h2.908l6.211,9.299l6.209-9.299h2.91l-7.859,11.549v8.46H715.393z"/>
	</g>
</g>
</svg>
