<?xml version="1.0" encoding="utf-8"?>
<!-- Generator: Adobe Illustrator 16.0.4, SVG Export Plug-In . SVG Version: 6.00 Build 0)  -->
<!DOCTYPE svg PUBLIC "-//W3C//DTD SVG 1.1//EN" "http://www.w3.org/Graphics/SVG/1.1/DTD/svg11.dtd">
<svg version="1.1" id="Layer_1" xmlns="http://www.w3.org/2000/svg" xmlns:xlink="http://www.w3.org/1999/xlink" x="0px" y="0px"
	 width="373px" height="53.485px" viewBox="284.338 240.841 373 53.485" enable-background="new 284.338 240.841 373 53.485"
	 xml:space="preserve">
<g>
	<path fill="#FFFFFF" d="M352.201,289.497v-8.66l-3.489,8.66h-0.524l-3.504-8.66v8.66h-1.281V279.2h1.837l3.212,7.935l3.194-7.935
		h1.838v10.297H352.201z"/>
	<path fill="#FFFFFF" d="M363.451,289.497l-0.912-2.3h-5.125l-0.911,2.3h-1.466l4.152-10.297h1.59l4.138,10.297H363.451z
		 M359.978,280.514l-2.177,5.558h4.369L359.978,280.514z"/>
	<path fill="#FFFFFF" d="M373.752,289.497l-6.006-8.212v8.212h-1.281V279.2h1.312l5.928,8.043V279.2h1.28v10.297H373.752z"/>
	<path fill="#FFFFFF" d="M376.911,288.046l0.771-0.988c0.664,0.772,1.776,1.482,3.227,1.482c1.837,0,2.423-0.988,2.423-1.791
		c0-2.655-6.098-1.173-6.098-4.848c0-1.698,1.514-2.871,3.55-2.871c1.56,0,2.779,0.54,3.644,1.451l-0.772,0.942
		c-0.771-0.864-1.852-1.236-2.979-1.236c-1.218,0-2.114,0.665-2.114,1.637c0,2.314,6.097,0.988,6.097,4.831
		c0,1.481-1.019,3.025-3.796,3.025C379.087,289.683,377.76,289.003,376.911,288.046z"/>
	<path fill="#FFFFFF" d="M386.738,289.497V279.2h6.746v1.143h-5.464v3.318h5.356v1.143h-5.356v4.693H386.738L386.738,289.497z"/>
	<path fill="#FFFFFF" d="M395.301,289.497V279.2h1.281v10.297H395.301z"/>
	<path fill="#FFFFFF" d="M399.202,289.497V279.2h6.747v1.143h-5.465v3.318h5.357v1.143h-5.357v3.551h5.465v1.143H399.202
		L399.202,289.497z"/>
	<path fill="#FFFFFF" d="M408.034,289.497V279.2h1.281v9.154h4.785v1.143H408.034z"/>
	<path fill="#FFFFFF" d="M415.821,289.497V279.2h3.52c3.21,0,5.279,2.238,5.279,5.156c0,2.934-2.069,5.141-5.279,5.141H415.821z
		 M423.292,284.356c0-2.224-1.405-4.013-3.952-4.013h-2.239v8.011h2.239C421.841,288.354,423.292,286.565,423.292,284.356z"/>
</g>
<g>
	<path fill="#FFFFFF" d="M295.432,255.793l3.556-3.554h11.521l3.554,3.554v23.688l-3.554,3.557h-11.521l-3.556-3.557V255.793
		L295.432,255.793z M323.037,251.927l-8.786-8.763h-19.025l-8.83,8.838v31.283l8.83,8.838h19.025l8.786-8.742V251.927
		L323.037,251.927z"/>
	<path fill="#FFFFFF" d="M285.241,283.795v-32.488l9.565-9.555h19.991l9.405,9.431l0.029,32.682l-9.5,9.501l-19.925-0.002
		L285.241,283.795L285.241,283.795z M294.401,240.841L284.338,250.9v33.307l9.994,10.119h20.813l10.056-10.072v-33.359
		l-9.987-10.054H294.401L294.401,240.841z"/>
	<path fill="#FFFFFF" d="M300.03,254.515h9.449l2.253,2.252v21.787l-2.169,2.168h-9.62l-2.134-2.136V256.74L300.03,254.515
		L300.03,254.515z M312.641,256.429l-2.822-2.822h-10.184l-2.781,2.781v22.522l2.722,2.721h10.368l2.697-2.699V256.429
		L312.641,256.429z"/>
</g>
<g>
	<polygon fill="#FFFFFF" points="338.698,269.704 338.698,270.635 657.338,270.635 657.338,269.704 	"/>
	<g>
		<path fill="#FFFFFF" d="M351.328,247.75l-0.299-2.068h-3.788v13.383l2.018,0.297v1.272h-7.175v-1.272l2.018-0.297v-13.383h-3.789
			l-0.297,2.068h-1.347v-3.813h14.006v3.813H351.328z"/>
		<path fill="#FFFFFF" d="M361.721,260.635v-1.197l1.869-0.3v-4.56h-4.983v4.56l1.868,0.3v1.197h-6.803v-1.197l1.945-0.3v-10.091
			l-1.945-0.298v-1.197h6.803v1.197l-1.868,0.297v3.936h4.983v-3.936l-1.869-0.298v-1.197h6.802v1.197l-1.943,0.298v10.091
			l1.943,0.3v1.196L361.721,260.635L361.721,260.635z"/>
		<path fill="#FFFFFF" d="M381.257,260.635h-11.288v-1.197l1.944-0.3v-10.091l-1.944-0.298v-1.197h11.288v3.464h-1.269l-0.3-1.87
			h-4.785v3.888h2.991l0.3-1.669h1.121v4.833h-1.121l-0.3-1.67h-2.991v4.511h4.785l0.3-1.869h1.269V260.635z"/>
		<path fill="#FFFFFF" d="M397.131,260.934c-5.185,0-7.453-3.091-7.453-8.698c0-5.582,2.294-8.599,7.477-8.599
			c5.185,0,7.453,3.091,7.453,8.698C404.608,257.917,402.315,260.934,397.131,260.934z M397.156,245.457
			c-2.767,0-4.186,2.218-4.186,6.804c0,4.609,1.37,6.853,4.137,6.853c2.766,0,4.186-2.218,4.186-6.804
			C401.293,247.701,399.923,245.457,397.156,245.457z"/>
		<path fill="#FFFFFF" d="M414.003,260.635v-1.197l1.868-0.3v-4.56h-4.984v4.56l1.87,0.3v1.197h-6.804v-1.197l1.944-0.3v-10.091
			l-1.944-0.298v-1.197h6.804v1.197l-1.87,0.298v3.936h4.983v-3.936l-1.868-0.298v-1.197h6.802v1.197l-1.944,0.298v10.091l1.944,0.3
			v1.197H414.003z"/>
		<path fill="#FFFFFF" d="M422.425,260.635v-1.197l1.944-0.3v-10.091l-1.944-0.298v-1.197h6.879v1.197l-1.944,0.298v10.091
			l1.944,0.3v1.197H422.425z"/>
		<path fill="#FFFFFF" d="M436.68,260.882c-4.413,0-6.331-2.466-6.331-6.802c0-4.338,1.944-6.754,6.354-6.754
			c4.411,0,6.331,2.469,6.331,6.804C443.034,258.466,441.09,260.882,436.68,260.882z M436.704,249.046
			c-2.093,0-3.214,1.519-3.214,5.034c0,3.538,1.071,5.083,3.164,5.083c2.095,0,3.24-1.519,3.24-5.033
			C439.893,250.59,438.797,249.046,436.704,249.046z"/>
		<path fill="#FFFFFF" d="M456.666,260.934c-2.892,0-5.209-0.997-5.209-0.997v-3.563h1.42l0.325,2.293c0,0,1.07,0.373,2.965,0.373
			c1.944,0,3.689-0.649,3.689-2.766c0-1.919-1.347-2.193-2.991-2.741c-2.619-0.874-5.384-1.621-5.384-5.209
			c0-2.916,1.82-4.686,5.633-4.686c1.744,0,3.565,0.4,4.984,0.948v3.34h-1.419l-0.323-2.146c0,0-1.497-0.324-2.942-0.324
			c-1.445,0-2.942,0.5-2.942,2.418c0,4.162,8.373,1.421,8.373,8.076C462.844,259.088,460.803,260.934,456.666,260.934z"/>
		<path fill="#FFFFFF" d="M474.656,251.165l-0.297-2.019h-2.892v9.992l1.944,0.3v1.197h-6.877v-1.197l1.944-0.3v-9.992h-2.892
			l-0.298,2.019h-1.271v-3.614h11.912v3.614H474.656z"/>
		<path fill="#FFFFFF" d="M483.927,260.635v-1.197l1.869-0.3l-0.923-2.366h-4.983l-0.923,2.366l1.868,0.3v1.197h-5.705v-1.197
			l1.869-0.3l4.486-11.587h2.866l4.486,11.587l1.868,0.3v1.197H483.927z M482.381,250.068l-1.895,5.184h3.789L482.381,250.068z"/>
		<path fill="#FFFFFF" d="M500.547,251.165l-0.3-2.019h-2.89v9.992l1.944,0.3v1.197h-6.879v-1.197l1.944-0.3v-9.992h-2.892
			l-0.299,2.019h-1.271v-3.614h11.912v3.614H500.547z"/>
		<path fill="#FFFFFF" d="M514.251,260.635h-11.287v-1.197l1.944-0.3v-10.091l-1.944-0.298v-1.197h11.287v3.464h-1.27l-0.3-1.87
			h-4.785v3.888h2.991l0.3-1.669h1.122v4.833h-1.122l-0.3-1.67h-2.991v4.511h4.785l0.3-1.869h1.27V260.635z"/>
		<path fill="#FFFFFF" d="M537.005,245.506v8.523c0,2.866-0.176,4.113-1.519,5.46c-0.975,0.97-2.567,1.444-4.936,1.444
			c-2.342,0-4.088-0.647-5.186-1.744c-1.42-1.422-1.27-3.54-1.27-5.382v-8.301l-2.02-0.298v-1.272h7.177v1.272l-2.019,0.298v9.769
			c0,2.743,1.521,3.839,3.864,3.839c1.246,0,2.267-0.249,2.939-0.972c0.598-0.623,0.924-1.596,0.924-2.867v-9.769l-2.02-0.298
			v-1.271h6.08v1.271L537.005,245.506z"/>
		<path fill="#FFFFFF" d="M552.729,249.046v11.589h-2.342l-6.654-9.347v7.849l1.943,0.3v1.196h-5.856v-1.196l1.944-0.3v-10.091
			l-1.944-0.298v-1.197h4.562l6.378,8.921v-7.426l-1.941-0.298v-1.197h5.854v1.197L552.729,249.046z"/>
		<path fill="#FFFFFF" d="M556.216,260.635v-1.197l1.944-0.3v-10.091l-1.944-0.298v-1.197h6.88v1.197l-1.945,0.298v10.091l1.945,0.3
			v1.197H556.216z"/>
		<path fill="#FFFFFF" d="M577.699,249.046l-4.361,11.589h-2.893l-4.359-11.589l-1.869-0.298v-1.197h6.777v1.197l-1.868,0.298
			l3.313,8.972l3.289-8.972l-1.869-0.298v-1.197h5.707v1.197L577.699,249.046z"/>
		<path fill="#FFFFFF" d="M591.878,260.635h-11.29v-1.197l1.945-0.3v-10.091l-1.945-0.298v-1.197h11.29v3.464h-1.271l-0.298-1.87
			h-4.787v3.888h2.991l0.3-1.669h1.122v4.833h-1.122l-0.3-1.67h-2.991v4.511h4.787l0.298-1.869h1.271V260.635z"/>
		<path fill="#FFFFFF" d="M603.34,260.635l-1.222-2.991c-0.821-1.994-1.321-2.916-3.063-2.916h-0.225v4.41l1.868,0.3v1.197h-6.803
			v-1.197l1.944-0.3v-10.091l-1.944-0.298v-1.197h6.604c1.345,0,2.917,0.075,3.938,1.021c0.672,0.623,1.047,1.47,1.047,2.443
			c0,1.519-0.998,2.889-2.367,3.314c1.097,0.822,2.045,3.513,2.593,4.808l1.869,0.3v1.197L603.34,260.635L603.34,260.635z
			 M601.945,249.544c-0.499-0.522-1.571-0.473-2.244-0.473h-0.871v4.186h0.522c0.848,0,2.019,0.1,2.642-0.598
			c0.397-0.447,0.499-0.972,0.499-1.543C602.493,250.542,602.369,249.994,601.945,249.544z"/>
		<path fill="#FFFFFF" d="M613.482,260.882c-2.442,0-4.484-0.822-4.484-0.822v-3.389h1.344l0.325,2.144c0,0,0.946,0.274,2.418,0.274
			c1.595,0,2.814-0.522,2.814-1.944c0-0.996-0.548-1.345-1.37-1.619c-2.417-0.822-5.506-1.17-5.506-4.437
			c0-2.341,1.618-3.764,4.834-3.764c1.469,0,2.989,0.3,4.31,0.772v3.24h-1.345l-0.323-2.042c0,0-1.099-0.25-2.318-0.25
			s-2.293,0.423-2.293,1.695c0,2.916,6.903,0.972,6.903,6.155C618.79,259.438,616.946,260.882,613.482,260.882z"/>
		<path fill="#FFFFFF" d="M620.535,260.635v-1.197l1.944-0.3v-10.091l-1.944-0.298v-1.197h6.879v1.197l-1.944,0.298v10.091
			l1.944,0.3v1.197H620.535z"/>
		<path fill="#FFFFFF" d="M639.474,251.165l-0.298-2.019h-2.892v9.992l1.943,0.3v1.197h-6.877v-1.197l1.942-0.3v-9.992h-2.891
			l-0.3,2.019h-1.27v-3.614h11.912v3.614H639.474z"/>
		<path fill="#FFFFFF" d="M654.502,249.046l-3.813,5.906v4.186l1.943,0.3v1.196h-6.879v-1.196l1.943-0.3v-4.186l-3.862-5.906
			l-1.869-0.298v-1.197h6.929v1.197l-1.869,0.298l2.691,4.236l2.667-4.236l-1.793-0.298v-1.197h5.78v1.197L654.502,249.046z"/>
	</g>
</g>
</svg>
